{
  "questions": [
    {
      "id": 1,
      "level": 1,
      "type": "rewrite",
      "question": "Put word in the correct tense: A young man aged 13 .............................. the Simpson Bank in Motown yesterday night. (rob)",
      "answers": [
        "robbed"
      ],
      "rightAnswerIndex": 0
    },
    {
      "id": 2,
      "level": 1,
      "type": "rewrite",
      "question": "Put the words in the correct order to make sentences. very | play | my | can | brother | football | well",
      "answers": [
        "My brother can play football very well"
      ],
      "rightAnswerIndex": 0
    },
    {
      "id": 3,
      "level": 1,
      "type": "rewrite",
      "question": "What must or mustn't you do? I ......................................... my dictionary at home. (forget)",
      "answers": [
        "mustn't forget",
        "must not forget"
      ],
      "rightAnswerIndex": 0
    },
    {
      "id": 4,
      "level": 1,
      "type": "rewrite",
      "question": "What must or mustn't you do? I ......................................... to the teacher all the time. (listen) ",
      "answers": [
        "must listen"
      ],
      "rightAnswerIndex": 0
    },
    {
      "id": 5,
      "level": 1,
      "type": "rewrite",
      "question": "Put in the present continuous form of the verb in brackets. Please be quiet. I _______________ (try) to read my book",
      "answers": [
        "I'm trying",
        "I am trying"
      ],
      "rightAnswerIndex": 0
    },
    {
      "id": 6,
      "level": 1,
      "type": "rewrite",
      "question": "Put in the present continuous form of the verb in brackets. Jack, you are very careless. You _______________ (always/forget) to do your homework!",
      "answers": [
        "always forget"
      ],
      "rightAnswerIndex": 0
    },
    {
      "id": 7,
      "level": 1,
      "type": "rewrite",
      "question": "Put the verb into the correct form, present continuous or present simple. I _______________ (not/belong) to this particu1ar government committee.",
      "answers": [
        "do not belong",
        "don't belong"
      ],
      "rightAnswerIndex": 0
    },
    {
      "id": 8,
      "level": 1,
      "type": "rewrite",
      "question": "Put the verb into the correct form, present continuous or present simple.Jane is doing some research in the library. She needs it for a book she _______________ (write).",
      "answers": [
        "writes"
      ],
      "rightAnswerIndex": 0
    },
    {
      "id": 9,
      "level": 1,
      "type": "rewrite",
      "question": "Put the verb into the correct form, present continuous or present simple.Can you hear those girls? What _______________ (they/talk) about?",
      "answers": [
        "are they talking"
      ],
      "rightAnswerIndex": 0
    },
    {
      "id": 10,
      "level": 1,
      "type": "rewrite",
      "question": "Put the correct verb in the sentence. Use the past simple: bring/write/buy/see: The party was fantastic. Every guest _______________ something to eat and a bottle of wine",
      "answers": [
        "brought"
      ],
      "rightAnswerIndex": 0
    },
    {
      "id": 11,
      "level": 1,
      "type": "rewrite",
      "question": "Put the correct verb in the sentence: .... was a strong wind last night. (There/ This/ Here)",
      "answers": [
        "There"
      ],
      "rightAnswerIndex": 0
    },
    {
      "id": 12,
      "level": 2,
      "type": "select",
      "question": "The baby boy saw ... in the mirror and started to cry.",
      "answers": [
        "himself",
        "herself",
        "itself"
      ],
      "rightAnswerIndex": 0
    },
    {
      "id": 13,
      "level": 2,
      "type": "select",
      "question": "A lot of trains ... late today due to the heavy storms. ",
      "answers": [
        "are run",
        "run",
        "are running"
      ],
      "rightAnswerIndex": 1
    },
    {
      "id": 14,
      "level": 2,
      "type": "select",
      "question": "Put the verb in the correct tense. 1. Tom _______________ (not/come) to the office yesterday because he _______________ (be) ill.",
      "answers": [
        "didn't come, was",
        "didn't came, is",
        "hadn't come, was"
      ],
      "rightAnswerIndex": 0
    },
    {
      "id": 15,
      "level": 2,
      "type": "select",
      "question": "Put the right word in the gap: You ... clean your teeth twice a day to avoid having problems.",
      "answers": [
        "can",
        "will",
        "should"
      ],
      "rightAnswerIndex": 2
    },
    {
      "id": 16,
      "level": 2,
      "type": "select",
      "question": "Put the right word in the gap: Jack: I think it’s going to rain. Jill: I ... , the clouds are clearing. Jack: We’ll soon see.",
      "answers": [
        "disagree",
        "complain",
        "argue"
      ],
      "rightAnswerIndex": 0
    },
    {
      "id": 17,
      "level": 2,
      "type": "select",
      "question": "Put the right word in the gap: I really don’t like this meal. ... money in the world wouldn’t get me to eat it.",
      "answers": [
        "Whatever",
        "Enough",
        "All the"
      ],
      "rightAnswerIndex": 2
    },
    {
      "id": 18,
      "level": 2,
      "type": "select",
      "question": "Put the right words in the gap: Last year, Joanna bought two ... coats in New York.",
      "answers": [
        " long, black, leather",
        "black, long, leather",
        "leather, black, long"
      ],
      "rightAnswerIndex": 0
    },
    {
      "id": 19,
      "level": 2,
      "type": "select",
      "question": "Put the right word in the gap: I waited for .......... minutes and then tried to call him again",
      "answers": [
        " few",
        "a few",
        "a little"
      ],
      "rightAnswerIndex": 1
    },
    {
      "id": 20,
      "level": 2,
      "type": "select",
      "question": "Put the right word in the gap: I've been in the same job ..... twenty years.",
      "answers": [
        " for",
        "from",
        "since"
      ],
      "rightAnswerIndex": 0
    },
    {
      "id": 21,
      "level": 2,
      "type": "select",
      "question": "Put the right word in the gap:  It's been snowing ....... Monday. It's a meter deep in our garden.",
      "answers": [
        " for",
        "from",
        "since"
      ],
      "rightAnswerIndex": 2
    },
    {
      "id": 22,
      "level": 2,
      "type": "select",
      "question": "Put the right word in the gap: My sister says that she wishes she ..... be able to fly like a bird.",
      "answers": [
        " can",
        "could",
        "will"
      ],
      "rightAnswerIndex": 1
    },
    {
      "id": 23,
      "level": 2,
      "type": "select",
      "question": "Put the right word in the gap: When I started to work here I needed a lot of help, but now I ....... all the work on my own.",
      "answers": [
        " am used to doing",
        "used to do",
        "get used to doing"
      ],
      "rightAnswerIndex": 0
    },
    {
      "id": 24,
      "level": 3,
      "type": "select",
      "question": "Put the right word in the gap: Firstly, I want to congratulate you all. Secondly, I would like to wish you good luck and ... I hope you have enjoyed the course.",
      "answers": [
        " In the end",
        "Finally",
        "At last"
      ],
      "rightAnswerIndex": 1
    },
    {
      "id": 25,
      "level": 3,
      "type": "select",
      "question": "Put the right word in the gap: The children thought they were ... when they saw the bull.",
      "answers": [
        "in a danger",
        "in danger",
        "in the danger"
      ],
      "rightAnswerIndex": 1
    },
    {
      "id": 26,
      "level": 3,
      "type": "select",
      "question": "Put the right word in the gap: I ... intending to stop smoking even before I got this bad cough.",
      "answers": [
        "would have been",
        "have been",
        "had been"
      ],
      "rightAnswerIndex": 2
    },
    {
      "id": 27,
      "level": 3,
      "type": "select",
      "question": "Put the right word in the gap:__________ in history when remarkable progress was made in relatively short periods of time. ",
      "answers": [
        "there has time",
        "there has been time",
        "it's time"
      ],
      "rightAnswerIndex": 1
    },
    {
      "id": 28,
      "level": 3,
      "type": "select",
      "question": "Choose the sentence with the meaning below. James is always lazy. He failed a test last week.",
      "answers": [
        "If you weren’t so lazy, you would pass that test.",
        " If you hadn’t been so lazy, you would pass that test.",
        " If you weren’t so lazy, you would have passed that test."
      ],
      "rightAnswerIndex": 2
    },
    {
      "id": 29,
      "level": 3,
      "type": "select",
      "question": "Complete the sentence. If he ___ you an invoice, you should pay him.",
      "answers": [
        "would send ",
        "'s sent",
        "had sent"
      ],
      "rightAnswerIndex": 1
    },
    {
      "id": 30,
      "level": 3,
      "type": "select",
      "question": "Which sentence is correct?",
      "answers": [
        " If you remembered to bring a map, we wouldn’t be lost now.",
        "If you’d remembered to bring a map, we wouldn’t be lost now.",
        "If you’d remembered to bring a map, we wouldn’t have been lost now."
      ],
      "rightAnswerIndex": 1
    },
    {
      "id": 31,
      "level": 3,
      "type": "select",
      "question": "Choose the sentence with the meaning below. Paul drove too fast. Now he’s in trouble with the police",
      "answers": [
        " If Paul hadn’t drive too fast, he wouldn’t have been in trouble with the police.",
        "If Paul didn’t drive too fast, he wouldn’t be in trouble with the police.",
        " If Paul hadn’t driven too fast, he wouldn’t be in trouble with the police. "
      ],
      "rightAnswerIndex": 2
    },
    {
      "id": 32,
      "level": 3,
      "type": "select",
      "question": "Complete the sentence. If you _________ the photocopier off and off again, it sometimes works.",
      "answers": [
        "turn ",
        "will turn",
        "turned"
      ],
      "rightAnswerIndex": 0
    },
    {
      "id": 33,
      "level": 3,
      "type": "select",
      "question": " Complete the sentence. If ____ late, can you turn everything off before you go?",
      "answers": [
        "you’ll work",
        " you’ve worked",
        "you’re working"
      ],
      "rightAnswerIndex": 2
    },
    {
      "id": 34,
      "level": 3,
      "type": "select",
      "question": "Choose the sentence with the meaning below. I don’t have a degree, so I didn’t get the job.",
      "answers": [
        " If I had a degree, I would have got that job.",
        "If I have a degree, I would have got that job.",
        "If I’d had a degree, I would get that job."
      ],
      "rightAnswerIndex": 0
    },
    {
      "id": 35,
      "level": 3,
      "type": "select",
      "question": " Which word completes the sentence? I wish I ____ come to the zoo with you next weekend, but I’m going to be busy.",
      "answers": [
        "could",
        "had",
        "will"
      ],
      "rightAnswerIndex": 0
    },
    {
      "id": 36,
      "level": 3,
      "type": "select",
      "question": "Which sentence is NOT correct?",
      "answers": [
        " I wish could do that!",
        " I wish you wouldn’t do that.",
        " I wish I were stronger."
      ],
      "rightAnswerIndex": 0
    }
  ]
}